0.9256819262208442	0.9717145276772654	0.9713449842174147	0.9713449842174147	0.9713449842174147
0.7112437636544774	1.0	1.0	1.0	1.0
0.9553791311628822	1.0	1.0	0.9940895434172289	0.9832208704789112
0.936205431471029	0.9858651873242646	1.0	1.0	1.0
0.7364844931055019	0.8790141554812405	0.8790141554812405	1.0	1.0
0.8673534819320862	0.8669269414684341	0.8669269414684341	1.0	1.0
0.8655979049451715	0.8869098173379428	0.8869098173379428	0.8938598275057718	0.8938598275057718
0.7468150644413288	0.8120090717999779	0.9114254895453038	1.0	0.9626894567983184
0.9000652418029375	0.934134883183218	1.0	1.0	1.0
0.7736978740049155	0.8969902614317966	0.8969902614317966	0.8969902614317966	0.8969902614317966
0.8879708989465123	0.9294121359376479	0.9492915969833706	0.9463254551765484	0.9492915969833706
0.8582707197396047	1.0	1.0	1.0	1.0
0.9139728036584648	0.998848081692801	0.998848081692801	0.973941739915526	0.998848081692801
0.9388947870754647	1.0	1.0	1.0	1.0
0.9315837501008309	0.9291596085074346	0.9402056277056278	0.9472049689440994	0.9472049689440994
0.9092556182602688	0.9314356396887281	1.0	1.0	1.0
0.9727992361184375	0.9830683648964952	0.9830683648964952	0.9661823266559261	0.9830683648964952
0.8580124133592275	0.94415221863062	1.0	1.0	1.0
0.9007905575952911	0.8656208656208656	0.9418606341683263	1.0	0.9418606341683263
0.8854202449029077	0.9302067126028005	0.9302067126028005	1.0	1.0
0.8873726384721247	0.9294631421384812	0.9294631421384812	0.9825008101476783	0.9212536456645526
0.8604025368314926	0.9666349612103559	0.9666349612103559	0.963365336028297	1.0
0.9747734534818847	0.9823327528783243	0.9823327528783243	0.996973744272938	0.996973744272938
0.7318535484124841	0.8306617396678059	1.0	1.0	1.0
0.9154148687164629	0.9736636784866965	0.973297453943283	0.973297453943283	0.973297453943283
0.7469457425520695	0.9004519206628171	0.9004519206628171	1.0	1.0
0.9210744667523928	0.931714420057941	0.931714420057941	1.0	0.9678593638611233
0.9191316303639916	0.9651060134597295	0.9651060134597295	0.9579998552717274	0.9579998552717274
0.882103804961989	0.924491473186768	0.9487363879186358	1.0	1.0
0.8940541321561506	0.9442724458204333	0.9442724458204333	0.9963576761974138	0.9269217397062961
0.9117458086923732	0.9745547073791349	0.9947507962775138	0.9947507962775138	0.9947507962775138
0.7768571574623837	0.8285167760947114	0.9058703406917231	1.0	0.9058703406917231
0.8748360093447014	0.9066802284962808	0.9066802284962808	1.0	0.8198023260592612
0.9395264405295655	1.0	1.0	1.0	1.0
0.9158906556054847	0.938270538080424	1.0	1.0	1.0
0.9483540177586117	0.9933108096636728	0.9933108096636728	1.0	0.9933108096636728
0.7513877500338243	0.833115280344209	0.833115280344209	0.8868507303651151	0.7809174410919735
0.9052613338607678	0.9519742910703127	1.0	1.0	1.0
0.8293505854676516	0.8593965542543511	0.888673652079481	1.0	0.888673652079481
0.9148509143752507	0.9672871461614715	0.9672871461614715	0.987360942835114	0.9672871461614715
0.8274092869167818	0.8622950040969494	0.9549573086012184	1.0	0.9549573086012184
0.9004434023683229	0.9529824669903212	0.9529824669903212	1.0	0.9529824669903212
0.9468684131285758	1.0	1.0	1.0	1.0
0.7735561477496063	0.7911184376864653	0.7911184376864653	0.855672084062339	0.7911184376864653
0.8654967028154031	1.0	1.0	1.0	1.0
0.7500351978027688	1.0	1.0	1.0	1.0
0.9557300948792367	0.9886280699967752	0.9886280699967752	0.9886280699967752	0.9886280699967752
0.7608104422275025	0.7719112031583717	0.963148016309624	0.963148016309624	0.963148016309624
0.9171480668689088	0.9616762408829793	1.0	1.0	1.0
0.9558625336927224	0.952978436657682	0.952978436657682	0.9858490566037736	0.952978436657682
0.8951128932706097	0.9437660561171721	0.9482367464050979	0.9482033830447403	0.9482367464050979
0.6746462876706659	0.7638347548482394	0.8118454281221709	1.0	1.0
0.8749174443646803	1.0	1.0	1.0	1.0
0.9280630826938941	1.0	1.0	0.9782409064732526	1.0
0.8436365834784288	0.8541183014122654	0.9444766879473786	1.0	1.0
0.9292824920793031	0.9619241679651604	1.0	1.0	1.0
0.8079458345673634	0.9531530029591964	0.8944970060712152	1.0	0.9462482112838467
0.8259008711594914	1.0	1.0	1.0	1.0
0.9169518106643857	1.0	1.0	0.9797411978763563	1.0
0.8625171863650514	0.9910630901732905	0.9910630901732905	1.0	0.9950062260039431
0.8733230811395162	0.9512614766204303	0.9512614766204303	0.8874187310626247	0.9676903634453461
0.5993300730633286	0.8146280734516029	0.9016080506276586	1.0	0.9016080506276586
0.8729063969701101	1.0	1.0	0.9408784739910568	0.970764702552782
0.8924000733670784	1.0	1.0	1.0	1.0
0.9344623691619145	0.9656796361798887	0.9656796361798887	0.9852046488125314	0.9554926730672055
0.9460973691413762	0.9932435475879464	0.9815623920844407	0.9815623920844407	0.9815623920844407
0.8743091678333827	0.9087202231919308	0.9963230560125904	0.9963230560125904	0.9963230560125904
0.918482377947428	0.9254813703425856	0.9254813703425856	0.9870408778665253	0.9254813703425856
0.6500291267877115	0.8931241908351903	0.8931241908351903	1.0	1.0
0.6068366466345365	0.6433517534744141	0.7577476278807772	1.0	1.0
0.8982587883407245	0.9885353150406504	0.9885353150406504	0.9885353150406504	0.9885353150406504
0.8470155322842601	0.8383400165929205	0.9729846515486728	0.9729846515486728	0.9729846515486728
0.7654039390987066	0.8785890308900224	1.0	1.0	1.0
0.9298557083672361	1.0	1.0	0.9566845331213294	1.0
0.9035957501613516	0.9680198484019692	1.0	1.0	1.0
0.9233251751607644	0.972006197217328	0.972006197217328	0.9802691536545356	0.9138161492192722
0.7555618296917733	0.8722596109523371	0.8722596109523371	0.9146676500414862	0.8473402784179958
0.8509796368517527	0.9223097552799195	0.9223097552799195	1.0	0.9223097552799195
0.9497057948796315	0.984383549489064	0.9906094260658672	0.984383549489064	0.9906094260658672
0.8338388584555123	0.9380572554951981	0.9380572554951981	1.0	0.9380572554951981
0.8815515295420426	0.9134129071414121	1.0	1.0	0.9794286444413685
0.8357669781265782	1.0	1.0	1.0	1.0
0.9353239593353481	1.0	0.985863291435938	0.985863291435938	0.985863291435938
0.9559996384939559	0.9701088975056082	0.9953945120411226	0.9953945120411226	0.9953945120411226
0.9217644412690853	0.8854806700007938	0.8854806700007938	0.9872033023735809	0.9512106056997698
0.9396968780046707	0.9786613611165955	1.0	1.0	1.0
0.8967505117997737	0.884953673802506	1.0	1.0	1.0
0.8399014073088994	0.9283100862129389	0.9283100862129389	0.9859676175790284	0.9283100862129389
0.8139199288445925	1.0	0.9766201486161095	0.9766201486161095	0.9766201486161095
0.6429394563103229	0.7263275157816561	0.9124415626457958	1.0	0.9124415626457958
0.9523975999317854	1.0	1.0	1.0	1.0
0.9119041168316363	0.9366627123057782	0.9366627123057782	1.0	1.0
0.8505882911010793	0.9018796625077368	0.9018796625077368	1.0	0.9668697266833892
0.9435607103710063	0.9973110005993553	0.9973110005993553	0.9973110005993553	0.9973110005993553
0.7883033164693732	0.8220626413198224	0.9276547190352566	1.0	1.0
0.9218805387536924	0.9860564073709382	1.0	1.0	1.0
0.8280502634406232	1.0	1.0	1.0	1.0
0.8807165830940411	0.8796708134835519	0.9670926373303831	1.0	1.0
0.6789043734347497	0.6165195250220118	1.0	1.0	1.0
0.9030124346532356	0.9084258083889549	1.0	1.0	1.0
0.9605642941313983	0.9683693769769139	1.0	1.0	1.0
0.9515920769075544	1.0	1.0	0.9962228517469311	1.0
0.8893662144522294	1.0	1.0	1.0	1.0
0.8663429293725199	0.8987914126047057	1.0	1.0	0.9243814626695597
0.7322375191649338	0.857271123432676	0.857271123432676	1.0	0.857271123432676
0.9579926611194377	1.0	0.9819215463331439	0.9819215463331439	0.9819215463331439
0.9427892783326661	0.9562909177478872	0.9504701821211762	1.0	0.9504701821211762
0.8653835493958695	0.8770192872527903	1.0	0.9850327981202271	1.0
0.8569882468824139	0.9412323118455013	1.0	0.9344092082233231	1.0
0.9023519487496505	0.9975659027685787	0.9975659027685787	0.9975659027685787	0.9975659027685787
0.6915996728227257	0.7925081358044638	1.0	1.0	1.0
0.9178087550693077	0.9542164904090653	1.0	1.0	1.0
0.8437628634853432	1.0	1.0	1.0	1.0
0.9070632439843916	0.9960290209894604	0.9960290209894604	0.9703967993312035	0.968306810378288
0.9015966491846706	0.97127656205466	0.9575482154732875	1.0	0.9575482154732875
0.8935802600851146	0.9863081901916853	0.9863081901916853	0.9969771328994629	1.0
0.9510176390773407	0.9954640206787292	0.9954640206787292	0.9954640206787292	0.9954640206787292
0.8711926601888555	1.0	1.0	1.0	1.0
0.8744229112201235	0.9406192168727786	0.934832417824516	0.934832417824516	0.934832417824516
0.6540807660403885	0.8245035863635105	0.8245035863635105	1.0	0.8245035863635105
0.9267203654247864	0.8730267854781988	0.8730267854781988	0.9950157328327031	1.0
0.8649003694123117	0.8886681322815391	0.8886681322815391	1.0	0.8886681322815391
0.9187889144268537	1.0	1.0	1.0	1.0
0.8860569594865625	0.9053028479743281	0.9767509025270759	0.9767509025270759	0.9767509025270759
0.8435794429975599	0.8428431553404948	0.8428431553404948	0.9319720168579984	0.8428431553404948
0.7714934725464995	1.0	1.0	1.0	1.0
0.7979356260712609	0.8809234236747264	0.8809234236747264	1.0	1.0
0.8479495052585362	0.9629663552543202	1.0	1.0	1.0
0.9143396095203326	0.9006055969911391	0.9544463568559953	0.9632561994007778	0.9165678587365335
0.9002586478024327	0.9769822232445043	0.9769822232445043	1.0	0.9769822232445043
0.868872914424984	0.926662950335118	0.926662950335118	1.0	0.926662950335118
0.834087590899775	0.848501376222428	1.0	1.0	1.0
0.9708318779924643	0.9686341844887968	1.0	1.0	1.0
0.5925023016007113	0.6529839614003683	1.0	1.0	1.0
0.860511375488761	0.91380060949064	0.91380060949064	1.0	0.8814136451271846
0.8991464888263454	0.9493552778500085	1.0	1.0	1.0
0.9400458482830469	0.9503819193411497	0.9503819193411497	1.0	0.9503819193411497
0.847776143083929	0.97270247005442	0.97270247005442	1.0	0.97270247005442
0.8857199781172707	1.0	1.0	0.9937323812658301	1.0
0.7889398690031976	0.9719185054933431	1.0	1.0	1.0
0.8857206505759122	0.8804949101502406	0.8428693005138947	0.9842722005826323	1.0
0.8227761332401744	0.8268881335642062	1.0	1.0	0.9870561576775905
0.953075737686205	0.9506671993607669	0.9506671993607669	0.9545825009988015	0.9545825009988015
0.9576774082629224	0.9821484856299607	0.9821484856299607	1.0	1.0
0.8708926562775446	1.0	1.0	0.9321090403034354	1.0
0.8918306841265043	0.9752263361389999	0.9752263361389999	0.9752263361389999	0.9752263361389999
0.8931336461946542	0.997741957423655	0.997741957423655	1.0	0.997741957423655
0.7176909924789672	0.9635003130248134	0.9635003130248134	1.0	0.9635003130248134
0.7397111857973426	0.9241358511124732	0.9241358511124732	1.0	0.9241358511124732
0.9183951439107595	0.9399759310242504	0.9399759310242504	0.9877182281277305	0.9399759310242504
0.7856441851589337	1.0	1.0	1.0	1.0
0.8371239489418737	0.8350663357731494	0.8350663357731494	0.8350663357731494	0.8350663357731494
0.9244478327806724	1.0	1.0	1.0	0.9590557397757776
0.8644564791155734	0.8949274240970566	0.9997059824827458	1.0	1.0
0.9422072289729251	0.9830959585557896	0.9830959585557896	0.9830959585557896	0.9830959585557896
0.6881453329027665	0.7090971756464713	0.7824726134585289	0.8196959534987703	0.8196959534987703
0.7867367097856633	0.9097046311222078	0.9097046311222078	1.0	1.0
0.9490928253366006	0.9800015809026955	0.985439886175006	0.985439886175006	0.985439886175006
0.8144297666971202	0.9319776335918131	0.9604367779711981	1.0	0.9991823600780715
0.7971056323563037	0.8801423881996845	0.8801423881996845	1.0	0.8801423881996845
0.9468256704336518	0.9872864254002424	0.9872864254002424	1.0	0.9089533162922104
0.8937754765198314	0.9109601234274864	0.9460449798243532	0.9734749584619036	0.9460449798243532
0.7462894053430159	0.9056976939909106	0.9056976939909106	0.9056976939909106	0.9056976939909106
0.7656384905267835	0.8027703306523681	0.8532816999304934	1.0	0.8532816999304934
0.692279548457017	0.7227140043192444	1.0	1.0	1.0
0.8035846327079231	0.9496265180643304	0.8665289046223683	0.8665289046223683	0.8665289046223683
0.9453307253840395	1.0	1.0	1.0	1.0
0.8453059990814284	0.8772639237855947	1.0	1.0	1.0
0.8446261766180286	0.8702119363273545	0.887643928620579	1.0	1.0
0.9210833523717371	0.9940465791348053	0.9702463345473115	0.9702463345473115	0.9702463345473115
0.9515157562625918	0.9430379746835443	0.9430379746835443	0.9813034553540882	0.9430379746835443
0.911089338752885	0.9479361128396597	0.9479361128396597	0.9465958227625931	0.9367510730298534
0.7532168291730671	0.8201962579024671	0.9714659741586666	1.0	1.0
0.9115001305681468	1.0	1.0	1.0	1.0
0.9220698350220637	0.9378039842761009	0.9897561463122126	0.9897561463122126	0.9897561463122126
0.8385500737794976	0.9168123517906288	0.9894414345801672	0.9894414345801672	0.9894414345801672
0.9092846225292012	0.9409311539218979	1.0	1.0	1.0
0.9437415739100401	1.0	1.0	1.0	1.0
0.9289922728196535	1.0	1.0	0.9490684765882611	1.0
0.8927875197189871	0.9074469226459403	0.9540214812783864	1.0	1.0
0.7123781497587417	0.7157324119854649	0.8100911419550844	1.0	1.0
0.9493944666614064	1.0	1.0	0.9767739309903782	1.0
0.8733331776257034	0.9195525407592526	0.9195525407592526	0.9809353802213495	0.8744972033797453
0.8282900583948599	0.9056842692650262	0.9842038052518055	0.9842038052518055	0.9842038052518055
0.891024287390467	0.9184593376339444	0.9184593376339444	1.0	1.0
0.8979591028605823	0.9951373269553647	0.9951373269553647	0.9793296797288308	0.8623404187917761
0.9059024169595994	0.9000404979486907	0.9000404979486907	0.9597837761695982	0.9404504076206573
0.9484941011195688	0.9565360741983113	0.9565360741983113	0.9823822015797244	0.9565360741983113
0.8268026676587711	1.0	1.0	1.0	1.0
0.9118486958830698	1.0	1.0	1.0	1.0
0.8911989712107984	0.9811269747402214	1.0	1.0	1.0
0.8130514552581103	0.9783118588941707	1.0	0.9783118588941707	1.0
0.9279047579155089	0.9180314898330565	0.9180314898330565	1.0	0.9180314898330565
0.8447122140964128	0.8944424064563464	1.0	1.0	0.9289775704852741
0.9632240917461913	0.982253473966181	0.982253473966181	0.982253473966181	0.982253473966181
0.9272908798414232	0.918556413661928	0.99422827815764	0.9789463328250282	0.9789463328250282
0.8547003585605778	0.906401400306317	0.906401400306317	0.9350482918138344	0.906401400306317
0.834964955327101	0.8749107059663943	0.8749107059663943	1.0	1.0
0.9087369595241921	0.9360128935574626	0.9360128935574626	0.9645851299959001	0.916983586162046
0.8899539769511335	0.9959897137289998	0.9959897137289998	0.9497014942281332	0.9959897137289998
