0.7981337503595839	0.924763766115006	0.924763766115006	1.0	1.0
0.8712968101869992	0.8938884196360826	0.8938884196360826	0.8938884196360826	0.8938884196360826
0.9202611771789855	0.967063073912389	0.967063073912389	0.9034171308143911	0.967063073912389
0.9296818605961373	0.9769767073363967	1.0	1.0	1.0
0.9552593074416758	0.9972388525308304	0.9972388525308304	0.9776984242874779	0.9972388525308304
0.8689396844458811	0.9310730824669549	0.9310730824669549	0.9390621645658908	0.9333885362038825
0.6110569637155207	0.6335307063991232	0.6335307063991232	1.0	0.6335307063991232
0.7934125293000374	0.8523080155969086	0.8523080155969086	0.8847626608139345	0.8358472063321581
0.8599076040140681	0.976365501840787	0.976365501840787	1.0	1.0
0.9371922274497212	0.969195293561166	0.9624253532785432	0.9624253532785432	0.9624253532785432
0.9468628486631957	0.975265977514525	0.975265977514525	0.975265977514525	0.975265977514525
0.8641831390196073	0.9834738033838606	0.9834738033838606	0.9834738033838606	0.9834738033838606
0.970588886490316	0.9928762391856661	0.9928762391856661	0.9928762391856661	0.9928762391856661
0.8290161379272764	1.0	1.0	0.9393557042692178	1.0
0.9241394412634102	1.0	1.0	1.0	1.0
0.931646786613035	1.0	0.9935164672869591	0.9846551469502289	0.9935164672869591
0.9481259285575868	0.9834797493701958	1.0	1.0	1.0
0.9807193290766572	0.9970488117173106	0.9970488117173106	0.9970488117173106	0.9970488117173106
0.8412073151553147	0.9286342907432594	0.9286342907432594	0.9286342907432594	0.9286342907432594
0.9307333476865668	0.9505736167071633	0.9505736167071633	1.0	0.9505736167071633
0.8647695094064001	1.0	0.9992299640248817	0.9992299640248817	0.9992299640248817
0.9252307460664005	0.9670556350222088	0.9670556350222088	0.9670556350222088	0.9670556350222088
0.7622805514944605	0.9354266008570126	0.9354266008570126	1.0	1.0
0.9682760536889803	0.9819825596306747	0.9819825596306747	0.988891382405745	0.9819825596306747
0.9570100580241607	0.9624940579939788	0.9590080811281889	0.9983203929646649	0.9983203929646649
0.9123559227439021	0.9239900139741557	0.9470552214668153	0.9886165585893953	0.9560520655058173
0.8702088353767512	0.9191150231949565	0.958090480155426	0.958090480155426	0.958090480155426
0.9202612143669732	0.978680235230713	0.978680235230713	0.9741468131310729	0.978680235230713
0.9524060820270812	0.9989993831814132	0.9989993831814132	0.9989993831814132	0.9989993831814132
0.9519111953208667	1.0	1.0	1.0	1.0
0.8834530217941631	1.0	1.0	0.9551604737102454	1.0
0.9430858011087841	0.9684462035128678	0.9684462035128678	0.9684462035128678	0.9684462035128678
0.7976079871253918	0.8812321937321936	0.9175213675213676	1.0	0.9175213675213676
0.895158615681183	0.9214200613110936	0.9522362485107295	0.956747566966975	0.9214200613110936
0.734733176151511	0.8387776801812213	1.0	1.0	1.0
0.9238675611246888	0.9532823868271648	0.9823518638762634	0.9435759119591096	0.9823518638762634
0.8940858939375962	0.9218323644560446	1.0	1.0	1.0
0.8627937466626541	1.0	1.0	0.93023145793663	0.93023145793663
0.9249116307524977	0.971772823057576	0.971772823057576	0.971772823057576	0.971772823057576
0.7719775149975933	0.9855929516959434	0.9855929516959434	1.0	0.9855929516959434
0.9575591477765387	0.963175311001398	0.9331811505724549	0.970342057298579	0.970342057298579
0.7982499370203542	0.8361489947860932	1.0	1.0	1.0
0.8564854993852609	0.8833682890962127	1.0	1.0	1.0
0.8447460097224027	0.8902586318763038	1.0	1.0	1.0
0.9463106745367987	0.9738323468862583	0.9738323468862583	0.9638928203808544	0.9559797992794647
0.9319353281853282	0.8586655405405405	0.8586655405405405	0.9659121621621622	0.8961486486486486
0.7017843191323132	0.6904637161634267	1.0	1.0	1.0
0.8563010511804239	1.0	1.0	0.876658624849216	1.0
0.9147721824310867	0.9181726648422573	0.9181726648422573	1.0	0.9259048897609335
0.94604508774521	0.9908884622098098	0.9908884622098098	0.9908884622098098	0.9908884622098098
0.8996981597721235	0.9550293773914156	0.9550293773914156	0.9590317467941021	0.8880777420232777
0.8993674310822982	1.0	1.0	1.0	1.0
0.8540909245861699	0.8859345276965447	1.0	1.0	1.0
0.776691966792927	0.7965372604249585	0.8651337946237216	1.0	0.8885248913110037
0.9438733073826395	0.9548001654000255	0.9548001654000255	0.9548001654000255	0.9548001654000255
0.9297839669596528	0.9702689823149422	1.0	0.9677141798157365	0.9702689823149422
0.8538565614343858	0.8947585524144758	0.8947585524144758	0.8567126828731713	0.8565339346606534
0.9775531864336972	1.0	1.0	1.0	1.0
0.8617549226446326	0.930554534899102	0.930554534899102	0.9479269242640249	0.9712958744249621
0.8658932296707315	0.9019842678022237	1.0	1.0	1.0
0.8952096946277932	0.9253105409798005	1.0	1.0	1.0
0.9038947968914818	0.9035490172862894	0.9035490172862894	0.9733305706843477	0.9090249822401137
0.9332522158145296	0.9687889460850718	1.0	1.0	1.0
0.7711228836254925	0.8052896800548647	0.8052896800548647	0.8052896800548647	0.8052896800548647
0.7956299433117499	0.9223575287916591	0.9763718378744568	0.9763718378744568	0.9763718378744568
0.8059804989237664	0.8567969952031858	0.8567969952031858	1.0	0.7825368811657163
0.9320816660990975	0.9371871275327771	0.9515792610250299	0.9515792610250299	0.9515792610250299
0.8636690790804111	1.0	1.0	0.9081508611843455	1.0
0.910063774710461	0.8588939745438585	1.0	1.0	1.0
0.7479468433057743	0.8293038498769578	1.0	1.0	1.0
0.6918322802888693	1.0	1.0	1.0	1.0
0.9437596195177416	0.9701881612335169	0.9701881612335169	0.9949389203954575	0.9949389203954575
0.815673040367189	0.8560640472405178	0.9343771292300704	0.9435044287985466	0.8827220077220077
0.9214649159530373	0.9747728283662705	0.9747728283662705	0.9747728283662705	0.9747728283662705
0.9264738847791976	1.0	1.0	1.0	1.0
0.8595695970695971	0.9529283216783216	0.9529283216783216	0.9976981351981351	0.9976981351981351
0.8981785726589957	0.9440743858954042	0.9538926307448495	1.0	1.0
0.6989244691459037	0.7587106733313732	1.0	1.0	1.0
0.9180617046340331	0.961866225246766	0.961866225246766	0.983293482925633	0.9510759610079087
0.716629161201298	0.848674472616999	0.9414313048291797	0.9414313048291797	0.9414313048291797
0.8587519679404608	0.9481028677318026	1.0	1.0	1.0
0.8635330638655324	0.8635663314952968	1.0	1.0	1.0
0.8757075734476863	1.0	1.0	1.0	1.0
0.852377147768552	0.8932019358559644	0.8932019358559644	1.0	0.8751723964994107
0.9565139945168136	0.9868031783894302	0.9868031783894302	0.9868031783894302	0.9868031783894302
0.9379815676522562	0.9249425302991144	0.9249425302991144	0.9249425302991144	0.9249425302991144
0.8210957884104239	0.9073233625580197	0.923891181021145	0.923891181021145	0.923891181021145
0.9368060163306206	1.0	1.0	1.0	1.0
0.74231821719115	0.7864773111036063	1.0	1.0	1.0
0.8518746562125056	0.9849973703877987	0.9849973703877987	0.9849973703877987	0.9849973703877987
0.7829479546763971	0.7405799884770501	1.0	1.0	1.0
0.9164415946436193	0.8905249679897567	0.8905249679897567	0.9673139849196186	0.9272656138853321
0.870651633547592	0.9765575767760367	0.9765575767760367	0.9765575767760367	0.9765575767760367
0.8265900148417186	0.8025292914264459	1.0	1.0	1.0
0.9257373423750459	0.9319651049631588	0.9319651049631588	0.9411233143333798	0.936274850549145
0.9554176720014851	0.9621660979683909	0.9621660979683909	0.9995431377867882	1.0
0.9794282650155051	0.9906666869014918	0.9906666869014918	0.9802406932451094	0.9906666869014918
0.9035736382503818	0.9266032293012753	0.9266032293012753	1.0	0.9266032293012753
0.9350214513269017	0.9829929672707599	0.9953002434406275	0.9953002434406275	0.9953002434406275
0.913079067068685	1.0	1.0	1.0	1.0
0.9089759100946508	0.9709473154942413	1.0	1.0	0.8946152758355199
0.8894625447641707	0.9103463799586886	0.9181452253588264	0.9181452253588264	0.9181452253588264
0.8513481638497704	0.9780473779752173	0.9780473779752173	0.9780473779752173	0.9780473779752173
0.9025276113987727	0.9192074483131835	0.9947728977824788	0.9947728977824788	0.9947728977824788
0.8087847068853941	0.8585119824141508	0.8585119824141508	1.0	0.8890406878203614
0.847784858056541	0.9314268185557523	0.9657831258104547	0.9738005270569863	0.9411034732776531
0.9349110586205684	0.955391397234718	0.955391397234718	0.955391397234718	0.955391397234718
0.9541513370368742	1.0	0.9995895812262726	0.9995895812262726	0.9995895812262726
0.8851412997947904	0.920858837677517	1.0	0.9753671949950681	1.0
0.9224352190608655	0.9777764339491427	0.9777764339491427	0.9777764339491427	0.9777764339491427
0.8574257814220112	0.8784917893716294	0.8784917893716294	0.9831242804338605	0.8950948312428043
0.9395558517777962	0.9972006998250437	0.9972006998250437	0.9972006998250437	0.9972006998250437
0.9505803322533734	0.987385522299028	0.987385522299028	0.987385522299028	0.987385522299028
0.9131286034334708	0.9377869027097173	1.0	1.0	1.0
0.9257982213545902	0.9659183341467382	0.9659183341467382	0.9659183341467382	0.9659183341467382
0.6659629804609085	0.938230723693947	0.938230723693947	1.0	1.0
0.7477784462235387	0.819684699276536	0.819684699276536	1.0	0.819684699276536
0.7246317525966376	0.8075710729200128	0.8075710729200128	1.0	1.0
0.6600647507397427	0.783818888546798	0.783818888546798	1.0	0.783818888546798
0.9062016739407281	0.9062891599151355	0.9377535701435502	0.9377535701435502	0.9377535701435502
0.9237475465528782	0.9605171479445691	1.0	1.0	1.0
0.9182445664899842	0.9571971390254805	0.9571971390254805	0.9571971390254805	0.9571971390254805
0.9091330534350385	0.9493729220843345	0.9493729220843345	0.9493729220843345	0.9493729220843345
0.6872492655652778	0.7728148592728306	1.0	1.0	1.0
0.9312060875871045	0.9862265700413491	0.9862265700413491	0.9862265700413491	0.9862265700413491
0.8552938664714675	0.8627395004117486	1.0	1.0	1.0
0.7364161647182842	0.7045161644136114	1.0	1.0	1.0
0.8196933113729798	0.7929475115014638	0.8527943329150983	1.0	0.8866452321204518
0.8627272797046612	0.9691720840272927	0.9691720840272927	1.0	0.9691720840272927
0.9205529596034956	0.9774086726613527	0.9774086726613527	1.0	0.9774086726613527
0.7912453066332918	0.8988020740210978	1.0	1.0	1.0
0.9750752188183807	0.973468271334792	0.973468271334792	0.973468271334792	0.973468271334792
0.9061185502466266	0.9019232242740021	0.9977472990575436	0.9977472990575436	0.9977472990575436
0.720576916058245	0.6888603690785456	0.7124996118775809	1.0	0.7124996118775809
0.9149360364810394	0.9706365569228788	0.9706365569228788	0.9706365569228788	0.9706365569228788
0.914761744365648	0.9974965178839659	0.9974965178839659	1.0	0.9974965178839659
0.7516931163842017	0.9124293060225706	0.9124293060225706	1.0	1.0
0.9402057905267436	1.0	1.0	0.9840912247133796	1.0
0.9814634635342956	0.998284036229833	0.998284036229833	0.998284036229833	0.998284036229833
0.6223999731195843	0.6966924021758203	0.6966924021758203	1.0	0.6565801017722408
0.9081401590294954	0.9890279444539688	0.9890279444539688	0.8862506428938797	0.9872421281216069
0.664282627152884	0.7169836123039173	1.0	1.0	1.0
0.9434398299652509	0.984666509227084	0.984666509227084	0.9919537127627273	0.984666509227084
0.8463138684888785	0.9076373212942063	1.0	1.0	1.0
0.7097803297577895	0.6561182186427189	0.7869641138947294	0.7869641138947294	0.7869641138947294
0.9178291899705165	0.9684677359745733	0.9684677359745733	0.9684677359745733	0.9684677359745733
0.7900900273958118	1.0	0.8870607200429876	0.8870607200429876	1.0
0.9203562372576457	0.9132968287897866	0.9132968287897866	0.9713331966853095	0.994187578694621
0.8731976787212	0.8357467067936257	1.0	1.0	1.0
0.660153211541945	0.6622446696288719	1.0	1.0	1.0
0.9249152479231082	1.0	1.0	1.0	1.0
0.7287472659232164	0.7909404287407089	0.9625336636863082	0.9625336636863082	0.9625336636863082
0.9439574996422916	1.0	1.0	1.0	1.0
0.9019146304455464	0.9414646060326463	0.9414646060326463	1.0	0.9414646060326463
0.9472068670196202	0.9941918405481158	0.9941918405481158	0.9941918405481158	0.9941918405481158
0.6819834917458728	0.6668959479739869	0.8392477488744373	1.0	1.0
0.7119916239897052	0.731457238222773	0.731457238222773	1.0	0.7755281514200626
0.9160188205644139	0.9775769031431969	0.9775769031431969	0.990442364562056	0.9980945702874912
0.9482522674178663	0.9221042586186329	0.9221042586186329	0.9912237351101718	0.9673488863516299
0.9213714038503138	0.916534349528951	0.916534349528951	0.916534349528951	0.916534349528951
0.9656405560251712	0.9835728374189913	0.9835728374189913	1.0	1.0
0.8951633741725943	0.9706206574024586	0.9706206574024586	0.9811097006948155	0.9537179315873864
0.838580504907149	1.0	1.0	1.0	1.0
0.8504522180733171	0.9411998818862257	0.9411998818862257	0.957825679475164	0.957825679475164
0.9409997145847206	0.9677374179431071	1.0	1.0	1.0
0.938895215173504	0.9571377254113084	1.0	1.0	1.0
0.9394789612603728	1.0	1.0	0.9562022430367265	1.0
0.7457598309445057	0.7025603332108294	0.7025603332108294	1.0	0.7394646576013721
0.9412914509915147	1.0	1.0	0.9403105722186768	1.0
0.9426030376134007	0.9522102544935612	0.9597703102171179	0.9597703102171179	0.9597703102171179
0.9723334994732816	0.9940846875564832	0.9940846875564832	0.9940846875564832	0.9940846875564832
0.8749336801761137	0.8803629971017246	0.8803629971017246	0.9473242425682202	0.9076511300106113
0.943730022755244	0.9859218530028953	0.9859218530028953	1.0	1.0
0.9274647944189014	1.0	0.9534823403768403	0.9534823403768403	0.9534823403768403
0.8856190998382104	0.9679938768178197	1.0	1.0	1.0
0.7167487858548283	1.0	1.0	1.0	1.0
0.8913612717181815	1.0	1.0	0.9032445043400136	1.0
0.868944961790621	0.9250976113918236	0.9250976113918236	1.0	0.9250976113918236
0.8847121305378286	0.876381474863133	1.0	1.0	1.0
0.9173340369959989	0.9500905459729518	1.0	1.0	1.0
0.9478953395315827	0.9567782035422262	1.0	1.0	1.0
0.9126896498587325	0.9029372150209448	1.0	1.0	1.0
0.8062659540361428	0.8204706770395802	1.0	1.0	1.0
0.8020704649306502	0.921782334611353	0.921782334611353	0.8967101767687647	0.9068338143856174
0.824854334464222	0.8569379333284824	1.0	1.0	1.0
0.9207315998734122	0.9877000044404316	0.9877000044404316	1.0	0.9877000044404316
0.8342979566463965	0.9104552720383636	1.0	1.0	1.0
0.8836944403713711	0.9563752906428706	0.9563752906428706	0.9501790988499969	0.9563752906428706
0.8678053382261304	1.0	1.0	0.8730596136536731	0.8730596136536731
0.8900505930024822	0.9804455308038442	0.9804455308038442	1.0	0.9308371757124603
0.71431510534447	1.0	1.0	1.0	1.0
0.9695891438300632	0.996821793416572	0.996821793416572	0.9772498783849521	0.991649100048646
0.9239059869036474	0.9216869348300593	0.9216869348300593	0.9598690364826942	0.9216869348300593
0.9529287615158091	1.0	1.0	0.9774103433117316	1.0
0.863357400911219	0.9784991982197204	0.9784991982197204	1.0	1.0
0.6709062218005454	0.7892783778410972	0.7892783778410972	1.0	0.7892783778410972
0.971109111155178	0.9948136735970226	0.9948136735970226	0.9474808182192597	0.9948136735970226
0.8584429585129373	1.0	1.0	1.0	1.0
0.933086394107834	0.975691574699791	0.975691574699791	0.975691574699791	0.975691574699791
0.7895082307404282	0.7867496131619667	1.0	1.0	1.0
